Place,Name,Sex,BirthDate,BirthYear,Equipment,Division,Country,BodyweightKg,WeightClassKg,Squat1Kg,Squat2Kg,Squat3Kg,Best3SquatKg,Bench1Kg,Bench2Kg,Bench3Kg,Best3BenchKg,Deadlift1Kg,Deadlift2Kg,Deadlift3Kg,Best3DeadliftKg,TotalKg,Event
1,Rebecca Croes,F,,2001,Raw,Open,Netherlands,50.8,52,97.5,105,110,110,70,75,-77.5,75,140,150,155,155,340,SBD
2,Nikki Klein #2,F,,2001,Raw,Open,Netherlands,51.73,52,97.5,102.5,105,105,57.5,60,-62.5,60,125,135,140,140,305,SBD
3,Ianthe van Belzen,F,,1994,Raw,Open,Netherlands,47.74,52,100,105,-110,105,65,67.5,70,70,112.5,120,125,125,300,SBD
4,Maartje Claessen,F,,1999,Raw,Open,Netherlands,51.56,52,97.5,102.5,105,105,60,62.5,-65,62.5,122.5,132.5,-137.5,132.5,300,SBD
5,Carlijne Schmid,F,,2001,Raw,Open,Netherlands,50.43,52,-97.5,100,-110,100,52.5,57.5,60,60,130,137.5,-145,137.5,297.5,SBD
6,Jie Yi Wu Chen,F,,1993,Raw,Open,Netherlands,51.45,52,90,95,100,100,62.5,-65,65,65,117.5,125,-135,125,290,SBD
7,Amélie Bevers,F,,2005,Raw,Open,Netherlands,50.92,52,82.5,87.5,90,90,52.5,57.5,-60,57.5,115,120,-125,120,267.5,SBD
1,Miriam Amri,F,,1995,Raw,Open,Netherlands,57.0,57,127.5,137.5,-145,137.5,70,75,77.5,77.5,167.5,177.5,182.5,182.5,397.5,SBD
2,Sophie Nijenhuis,F,,1992,Raw,Open,Netherlands,56.35,57,117.5,127.5,-135,127.5,65,70,-72.5,70,155,165,175,175,372.5,SBD
3,Gaby Voerman,F,,1999,Raw,Open,Netherlands,55.88,57,-100,100,112.5,112.5,60,65,67.5,67.5,125,137.5,150,150,330,SBD
4,Chanou Leeters,F,,1993,Raw,Open,Netherlands,54.7,57,92.5,-97.5,100,100,57.5,60,-62.5,60,140,152.5,-170,152.5,312.5,SBD
5,Tessa Schaper,F,,1996,Raw,Open,Netherlands,55.69,57,105,110,112.5,112.5,60,-65,65,65,115,122.5,130,130,307.5,SBD
6,Karlijn Wijsman,F,,1993,Raw,Open,Netherlands,55.9,57,-97.5,97.5,102.5,102.5,57.5,62.5,65,65,110,117.5,122.5,122.5,290,SBD
7,Stefanie Faber,F,,1994,Raw,Open,Netherlands,56.62,57,100,105,-110,105,52.5,55,-57.5,55,117.5,127.5,-140,127.5,287.5,SBD
8,Talitha Guerrero Obando,F,,1997,Raw,Open,Netherlands,54.86,57,85,90,-92.5,90,60,62.5,65,65,115,-120,125,125,280,SBD
9,Mieke Hubers,F,,1980,Raw,Open,Netherlands,55.53,57,92.5,97.5,-102.5,97.5,45,47.5,-50,47.5,110,120,125,125,270,SBD
10,Geneviève Huizeling,F,,1980,Raw,Open,Netherlands,56.62,57,90,95,-97.5,95,50,52.5,55,55,112.5,117.5,120,120,270,SBD
11,Anjali den Boer,F,,2000,Raw,Open,Netherlands,54.86,57,70,75,82.5,82.5,52.5,55,-57.5,55,110,115,120,120,257.5,SBD
12,Floortje Savrij Droste,F,,2002,Raw,Open,Netherlands,52.09,57,62.5,67.5,70,70,42.5,45,-47.5,45,117.5,130,132.5,132.5,247.5,SBD
13,Carolien Schouten,F,,1972,Raw,Open,Netherlands,53.6,57,55,62.5,65,65,42.5,45,-50,45,90,95,100,100,210,SBD
1,Grace Heijns,F,,1996,Raw,Open,Netherlands,59.74,63,120,-127.5,127.5,127.5,62.5,67.5,70,70,142.5,150,160,160,357.5,SBD
2,Esmee Neeleman,F,,2003,Raw,Open,Netherlands,60.42,63,107.5,-115,115,115,72.5,77.5,82.5,82.5,140,147.5,157.5,157.5,355,SBD
3,Florence Peeters,F,,1996,Raw,Open,Netherlands,62.62,63,122.5,127.5,130,130,72.5,-75,-75,72.5,130,137.5,147.5,147.5,350,SBD
4,Larissa Vermaning,F,,1993,Raw,Open,Netherlands,58.80,63,105,112.5,117.5,117.5,-80,82.5,-87.5,82.5,130,140,147.5,147.5,347.5,SBD
5,Viola Gyed,F,,1995,Raw,Open,Netherlands,59.03,63,115,122.5,-127.5,122.5,65,67.5,70,70,130,140,147.5,147.5,340,SBD
6,Laura Koopman,F,,1996,Raw,Open,Netherlands,62.56,63,110,115,120,120,62.5,67.5,70,70,140,150,-167.5,150,340,SBD
7,Esmée Berendsen,F,,2000,Raw,Open,Netherlands,62.22,63,110,120,122.5,122.5,65,70,72.5,72.5,120,130,135,135,330,SBD
8,Aniek Schreurs,F,,1993,Raw,Open,Netherlands,62.23,63,117.5,-125,-125,117.5,57.5,62.5,65,65,130,140,145,145,327.5,SBD
9,Ginny Rambow,F,,1977,Raw,Open,Netherlands,61.44,63,105,110,-115,110,72.5,77.5,-80,77.5,120,130,132.5,132.5,320,SBD
10,Cathelijne Blom,F,,1998,Raw,Open,Netherlands,59.97,63,-100,-100,105,105,55,57.5,-60,57.5,140,150,-155,150,312.5,SBD
11,Miriam Beusink,F,,1991,Raw,Open,Netherlands,61.48,63,-100,-105,105,105,50,52.5,-55,52.5,120,127.5,135,135,292.5,SBD
12,Margoo Timmermans,F,,1981,Raw,Open,Netherlands,61.83,63,87.5,95,100,100,55,57.5,-60,57.5,127.5,135,-140,135,292.5,SBD
13,Amber Hoffers,F,,2001,Raw,Open,Netherlands,59.22,63,-80,85,87.5,87.5,55,57.5,60,60,125,135,142.5,142.5,290,SBD
14,Erzsébet Jennifer Kovacs,F,,1997,Raw,Open,Netherlands,60.88,63,87.5,95,100,100,60,-62.5,62.5,62.5,115,120,127.5,127.5,290,SBD
15,Iman te Wildt,F,,1997,Raw,Open,Netherlands,61.95,63,-100,100,105,105,47.5,52.5,55,55,115,122.5,130,130,290,SBD
16,Deborah Hartog,F,,1998,Raw,Open,Netherlands,60.93,63,90,97.5,105,105,55,57.5,-60,57.5,110,117.5,125,125,287.5,SBD
17,Rosa Asberg,F,,1999,Raw,Open,Netherlands,60.11,63,100,-105,105,105,50,52.5,-55,52.5,110,115,120,120,277.5,SBD
18,Simone Verhoef,F,,1998,Raw,Open,Netherlands,61.72,63,90,95,-100,95,55,57.5,60,60,112.5,117.5,-125,117.5,272.5,SBD
19,Pauline Schwencke,F,,1971,Raw,Open,Netherlands,62.05,63,85,90,-95,90,-55,57.5,60,60,110,117.5,120,120,270,SBD
20,Nienke Oldenburger,F,,1998,Raw,Open,Netherlands,61.17,63,82.5,87.5,90,90,50,52.5,-55,52.5,112.5,120,125,125,267.5,SBD
21,Paulina Breidenbach,F,,2001,Raw,Open,Netherlands,59.84,63,90,97.5,-102.5,97.5,47.5,-50,-52.5,47.5,105,115,-120,115,260,SBD
22,Zoë Stubij,F,,1997,Raw,Open,Netherlands,60.25,63,92.5,102.5,105,105,47.5,50,-52.5,50,100,-107.5,-107.5,100,255,SBD
23,Rianka van Bennekom,F,,2001,Raw,Open,Netherlands,61.78,63,90,95,-100,95,45,47.5,-50,47.5,110,-117.5,-120,110,252.5,SBD
24,Teddy Knoop,F,,2002,Raw,Open,Netherlands,61.66,63,75,85,-90,85,50,-57.5,-57.5,50,100,105,110,110,245,SBD
25,Nicole Kreuger,F,,1998,Raw,Open,Netherlands,59.63,63,75,80,-85,80,37.5,40,42.5,42.5,102.5,107.5,110,110,232.5,SBD
DQ,Milou Drost,F,,1993,Raw,Open,Netherlands,61.42,63,-110,-110,-110,,60,65,67.5,67.5,130,-135,137.5,137.5,,SBD
1,Romy van Vianen,F,,2000,Raw,Open,Netherlands,65.62,69,152.5,157.5,160,160,-85,-85,85,85,165,170,-175,170,415,SBD
2,Michelle Weyers,F,,2002,Raw,Open,Netherlands,68.02,69,135,142.5,-147.5,142.5,82.5,87.5,90,90,162.5,177.5,-185,177.5,410,SBD
3,Jolijn Brandsma,F,,1998,Raw,Open,Netherlands,67.66,69,130,140,-145,140,55,60,-65,60,165,185,-190,185,385,SBD
4,Senja-Irene Torres Perez De San Roman,F,,1988,Raw,Open,Netherlands,67.78,69,140,147.5,152.5,152.5,70,77.5,-80,77.5,140,147.5,-152.5,147.5,377.5,SBD
5,Sevde Bayrak,F,,1997,Raw,Open,Netherlands,68.32,69,122.5,130,135,135,67.5,-72.5,-72.5,67.5,150,-152.5,165,165,367.5,SBD
6,Yanou Athineos,F,,1995,Raw,Open,Netherlands,67.84,69,125,130,-135,130,57.5,62.5,65,65,150,160,-167.5,160,355,SBD
7,Chenine Bleumink,F,,1997,Raw,Open,Netherlands,68.22,69,120,127.5,132.5,132.5,65,70,72.5,72.5,130,140,150,150,355,SBD
8,Desie Dircks,F,,1988,Raw,Open,Netherlands,66.54,69,110,117.5,-122.5,117.5,65,67.5,70,70,152.5,157.5,165,165,352.5,SBD
9,Bibi Stellema,F,,2000,Raw,Open,Netherlands,66.72,69,120,125,-130,125,70,75,-77.5,75,150,152.5,-170,152.5,352.5,SBD
10,Priscilla Molenaar,F,,1995,Raw,Open,Netherlands,64.84,69,110,115,117.5,117.5,80,82.5,-85,82.5,135,140,145,145,345,SBD
11,Judith van Dijk,F,,1994,Raw,Open,Netherlands,66.84,69,105,110,115,115,57.5,60,62.5,62.5,145,157.5,167.5,167.5,345,SBD
12,Nikki van der Welle,F,,1997,Raw,Open,Netherlands,67.2,69,-115,120,125,125,50,52.5,55,55,150,157.5,165,165,345,SBD
13,Chantal Schalkers,F,,1997,Raw,Open,Netherlands,67.7,69,117.5,125,130,130,60,65,70,70,130,137.5,145,145,345,SBD
14,Florianne Volbeda,F,,1988,Raw,Open,Netherlands,67.60,69,110,-120,-120,110,77.5,82.5,-85,82.5,137.5,145,147.5,147.5,340,SBD
15,Samantha Bendeler,F,,1991,Raw,Open,Netherlands,66.2,69,125,130,-132.5,130,52.5,55,57.5,57.5,140,150,-157.5,150,337.5,SBD
16,Nelleke van Staveren,F,,1995,Raw,Open,Netherlands,64.78,69,110,115,120,120,60,65,70,70,120,135,145,145,335,SBD
17,Kim Hoetjes-Mulders,F,,1975,Raw,Open,Netherlands,67.64,69,120,125,-130,125,70,75,-77.5,75,125,130,135,135,335,SBD
18,Bașak Özkan,F,,1996,Raw,Open,Netherlands,66.56,69,120,127.5,-130,127.5,52.5,-57.5,-57.5,52.5,137.5,147.5,152.5,152.5,332.5,SBD
19,Zina Koning,F,,1991,Raw,Open,Netherlands,67.80,69,-102.5,102.5,110,110,70,75,77.5,77.5,135,145,-157.5,145,332.5,SBD
20,Naomi van Valen,F,,1999,Raw,Open,Netherlands,67.5,69,115,120,122.5,122.5,62.5,65,-67.5,65,140,-150,-157.5,140,327.5,SBD
21,Suzanna Stroom,F,,1999,Raw,Open,Netherlands,68.4,69,112.5,117.5,120,120,52.5,57.5,-60,57.5,130,140,145,145,322.5,SBD
22,Sarah Rahman,F,,1994,Raw,Open,Netherlands,64.46,69,-120,120,-125,120,60,65,-67.5,65,130,-145,-145,130,315,SBD
23,Iris van de Poel,F,,1996,Raw,Open,Netherlands,67.92,69,92.5,100,-105,100,62.5,67.5,-72.5,67.5,135,142.5,147.5,147.5,315,SBD
24,Siri Bentem,F,,1991,Raw,Open,Netherlands,68.94,69,100,107.5,-112.5,107.5,57.5,62.5,-65,62.5,145,-160,-160,145,315,SBD
25,Debbie Schoone,F,,1994,Raw,Open,Netherlands,65.5,69,107.5,-115,115,115,62.5,65,67.5,67.5,115,122.5,130,130,312.5,SBD
26,Annemie van Lakwijk,F,,2000,Raw,Open,Netherlands,68.0,69,112.5,120,-127.5,120,50,-55,-55,50,140,-150,-150,140,310,SBD
27,Saskia Taams,F,,1999,Raw,Open,Netherlands,65.0,69,100,105,107.5,107.5,55,57.5,60,60,132.5,140,-145,140,307.5,SBD
28,Bianca Ungureanu,F,,1992,Raw,Open,Netherlands,67.2,69,95,-102.5,102.5,102.5,65,70,-75,70,135,-142.5,-142.5,135,307.5,SBD
29,Rosan Diks,F,,1995,Raw,Open,Netherlands,68.0,69,90,95,100,100,62.5,65,67.5,67.5,120,127.5,135,135,302.5,SBD
30,Tessa Snoek,F,,1999,Raw,Open,Netherlands,67.2,69,97.5,105,110,110,45,-47.5,-47.5,45,120,130,140,140,295,SBD
31,Hester Schaap,F,,1994,Raw,Open,Netherlands,68.3,69,92.5,97.5,105,105,52.5,55,57.5,57.5,122.5,130,-137.5,130,292.5,SBD
32,Brittany Jones,F,,1999,Raw,Open,Netherlands,68.2,69,85,90,-95,90,55,57.5,60,60,130,140,-150,140,290,SBD
33,Jiska Chang,F,,1995,Raw,Open,Netherlands,67.8,69,100,105,-110,105,47.5,-50,-50,47.5,122.5,132.5,-140,132.5,285,SBD
34,Hanneke Chorus,F,,1983,Raw,Open,Netherlands,68.6,69,110,117.5,-122.5,117.5,47.5,52.5,-55,52.5,115,-120,-120,115,285,SBD
35,Sanne Verhoeven,F,,1997,Raw,Open,Netherlands,67.2,69,95,97.5,-110,97.5,45,50,52.5,52.5,110,125,132.5,132.5,282.5,SBD
36,Gwen Heuts,F,,1983,Raw,Open,Netherlands,63.5,69,90,97.5,100,100,60,65,67.5,67.5,100,107.5,-112.5,107.5,275,SBD
37,Miranda Ziekman,F,,1996,Raw,Open,Netherlands,68.3,69,-100,100,-102.5,100,57.5,-60,-60,57.5,115,-117.5,-117.5,115,272.5,SBD
38,Yessi Kristiani,F,,1995,Raw,Open,Netherlands,68.3,69,-90,90,-97.5,90,45,50,-55,50,105,115,122.5,122.5,262.5,SBD
39,Romy van Dillen,F,,2001,Raw,Open,Netherlands,64.8,69,95,102.5,110,110,42.5,45,-47.5,45,95,105,-110,105,260,SBD
40,Aylin Bilaloglu,F,,1989,Raw,Open,Netherlands,67.4,69,-90,90,100,100,47.5,-50,50,50,105,-110,-110,105,255,SBD
41,Linda Lanting,F,,1995,Raw,Open,Netherlands,65.8,69,82.5,87.5,-92.5,87.5,52.5,55,57.5,57.5,-107.5,107.5,-112.5,107.5,252.5,SBD
42,Sylvia Deemter,F,,1968,Raw,Open,Netherlands,65.5,69,80,90,-97.5,90,37.5,40,-42.5,40,107.5,115,-120,115,245,SBD
DQ,Sterre Snackers,F,,2001,Raw,Open,Netherlands,68.4,69,-105,-110,-110,,47.5,50,52.5,52.5,107.5,115,120,120,,SBD
DQ,Iza Kwantes,F,,2002,Raw,Open,Netherlands,68.94,69,122.5,127.5,130,130,-65,-65,-65,,160,180,-182.5,180,,SBD
1,Janna Hallink,F,,1998,Raw,Open,Netherlands,73.94,76,140,147.5,150,150,85,90,92.5,92.5,165,177.5,182.5,182.5,425,SBD
2,Tessa Ophoff,F,,2001,Raw,Open,Netherlands,73.64,76,140,150,155,155,75,80,-85,80,165,175,180,180,415,SBD
3,Femke Ploeg,F,,2000,Raw,Open,Netherlands,73.34,76,140,-145,145,145,75,82.5,85,85,170,180,-195,180,410,SBD
4,Ramona Schuit,F,,1995,Raw,Open,Netherlands,73.46,76,-142.5,147.5,-157.5,147.5,80,85,90,90,160,170,-185,170,407.5,SBD
5,Symone Kooistra,F,,1996,Raw,Open,Netherlands,74.94,76,137.5,142.5,-145,142.5,77.5,82.5,-85,82.5,172.5,177.5,-192.5,177.5,402.5,SBD
6,Lisa Zuiderduin,F,,2000,Raw,Open,Netherlands,75.36,76,125,132.5,140,140,62.5,65,67.5,67.5,165,175,180,180,387.5,SBD
7,Nienke Eilander,F,,1993,Raw,Open,Netherlands,75.28,76,145,152.5,-160,152.5,62.5,65,-67.5,65,155,-162.5,162.5,162.5,380,SBD
8,Phylicia Keizer,F,,2000,Raw,Open,Netherlands,73.64,76,110,122.5,130,130,87.5,90,92.5,92.5,140,152.5,-170,152.5,375,SBD
9,Maaike Brinkhof,F,,1986,Raw,Open,Netherlands,70.78,76,115,122.5,-127.5,122.5,67.5,72.5,-75,72.5,160,170,175,175,370,SBD
10,Angeline Bosma,F,,1987,Raw,Open,Netherlands,74.14,76,107.5,-115,115,115,60,65,67.5,67.5,152.5,162.5,-170,162.5,345,SBD
11,Franca Vos,F,,1995,Raw,Open,Netherlands,74.64,76,122.5,-127.5,-127.5,122.5,57.5,62.5,-65,62.5,145,152.5,160,160,345,SBD
12,Sam Brasser,F,,2000,Raw,Open,Netherlands,73.60,76,110,117.5,125,125,55,60,-65,60,135,145,155,155,340,SBD
13,Maartje van Vught,F,,1988,Raw,Open,Netherlands,74.00,76,112.5,117.5,-122.5,117.5,62.5,67.5,70,70,-130,130,147.5,147.5,335,SBD
14,Emma Dierickx,F,,1993,Raw,Open,Netherlands,72.70,76,-112.5,112.5,122.5,122.5,72.5,75,77.5,77.5,130,-142.5,-142.5,130,330,SBD
15,Chenna Kuijpers,F,,1999,Raw,Open,Netherlands,74.34,76,115,-120,120,120,50,52.5,-55,52.5,125,137.5,-142.5,137.5,310,SBD
16,Tamara Jetten,F,,1993,Raw,Open,Netherlands,74.54,76,105,-110,112.5,112.5,57.5,60,62.5,62.5,127.5,135,-142.5,135,310,SBD
17,Anell Roos,F,,1990,Raw,Open,Netherlands,71.42,76,107.5,115,120,120,47.5,52.5,-55,52.5,110,117.5,125,125,297.5,SBD
18,Georgette Vriens,F,,1999,Raw,Open,Netherlands,73.36,76,97.5,-102.5,105,105,40,45,-47.5,45,120,130,142.5,142.5,292.5,SBD
19,Soraya Wessels,F,,1991,Raw,Open,Netherlands,73.50,76,-105,105,-112.5,105,60,65,67.5,67.5,105,115,120,120,292.5,SBD
20,Jolein van den Bogaart,F,,1995,Raw,Open,Netherlands,74.94,76,100,105,-110,105,55,60,-62.5,60,115,120,-122.5,120,285,SBD
21,Whitley Ponte-Arends,F,,1993,Raw,Open,Netherlands,72.58,76,100,-107.5,-107.5,100,47.5,52.5,57.5,57.5,100,107.5,112.5,112.5,270,SBD
22,Louise Möllers,F,,2003,Raw,Open,Netherlands,72.20,76,87.5,92.5,95,95,40,-45,45,45,110,120,125,125,265,SBD
23,Wendy van der Gun,F,,1979,Raw,Open,Netherlands,72.80,76,90,-100,-100,90,50,-52.5,-52.5,50,115,120,125,125,265,SBD
24,Emmica de Smet,F,,1990,Raw,Open,Netherlands,74.90,76,82.5,-90,90,90,47.5,52.5,-55,52.5,105,110,117.5,117.5,260,SBD
25,Mette D'hond,F,,1997,Raw,Open,Netherlands,71.80,76,80,87.5,-95,87.5,-50,50,-57.5,50,105,112.5,-120,112.5,250,SBD
DQ,Lyenne van der Steen,F,,1992,Raw,Open,Netherlands,73.20,76,-130,-130,-130,,60,65,70,70,150,160,170,170,,SBD
1,Ankie Timmers,F,,1986,Raw,Open,Netherlands,82.0,84,160,167.5,172.5,172.5,115,120,122.5,122.5,185,195,205,205,500,SBD
2,Lapanda Mampikin,F,,1967,Raw,Open,Netherlands,80.2,84,140,-160,160,160,85,87.5,-95,87.5,180,195,210,210,457.5,SBD
3,Michelle de Jong #1,F,,1998,Raw,Open,Netherlands,78.3,84,130,-140,140,140,85,87.5,90,90,160,170,-175,170,400,SBD
4,Karlijn Verkaik,F,,1985,Raw,Open,Netherlands,82.2,84,140,-145,-145,140,65,-70,-70,65,167.5,175,,175,380,SBD
5,Jessica Konjanan,F,,1982,Raw,Open,Netherlands,82.9,84,115,122.5,130,130,70,72.5,75,75,147.5,157.5,165,165,370,SBD
6,Britt Krijger,F,,2000,Raw,Open,Netherlands,83.3,84,135,142.5,-147.5,142.5,67.5,70,72.5,72.5,147.5,155,-165,155,370,SBD
7,Daimy Vinken,F,,1995,Raw,Open,Netherlands,80.1,84,125,132.5,140,140,60,67.5,72.5,72.5,130,145,-167.5,145,357.5,SBD
8,Bianca van Beugen,F,,1982,Raw,Open,Netherlands,81.0,84,115,120,125,125,70,75,-77.5,75,137.5,142.5,145,145,345,SBD
9,Anne van Gils,F,,2003,Raw,Open,Netherlands,82.6,84,120,125,132.5,132.5,57.5,60,62.5,62.5,135,140,-150,140,335,SBD
10,Iris de Groot,F,,1997,Raw,Open,Netherlands,80.7,84,110,115,-120,115,60,62.5,65,65,130,140,150,150,330,SBD
11,Marjan Steenge,F,,1991,Raw,Open,Netherlands,78.0,84,105,110,115,115,55,57.5,-60,57.5,145,150,155,155,327.5,SBD
12,Aniek te Kronnie,F,,1994,Raw,Open,Netherlands,80.1,84,-117.5,-122.5,122.5,122.5,47.5,50,52.5,52.5,130,142.5,152.5,152.5,327.5,SBD
13,Cheryl Jansen,F,,2002,Raw,Open,Netherlands,78.1,84,97.5,105,110,110,50,52.5,-57.5,52.5,110,117.5,-120,117.5,280,SBD
14,Marjolein Egtberts,F,,1985,Raw,Open,Netherlands,83.1,84,80,87.5,-92.5,87.5,42.5,45,-47.5,45,107.5,115,120,120,252.5,SBD
1,Ilrish Kensenhuis,F,,1986,Raw,Open,Netherlands,88.1,84+,165,172.5,177.5,177.5,92.5,97.5,-100,97.5,205,215,-225,215,490,SBD
2,Vrony Peters,F,,1990,Raw,Open,Netherlands,108.7,84+,192.5,-197.5,197.5,197.5,77.5,80,-82.5,80,185,192.5,-200,192.5,470,SBD
3,Brittney van den Berg,F,,1996,Raw,Open,Netherlands,115.7,84+,130,140,145,145,85,95,-100,95,155,165,175,175,415,SBD
4,Sterre van Krimpen,F,,1994,Raw,Open,Netherlands,113.0,84+,145,152.5,157.5,157.5,85,87.5,-90,87.5,150,160,-170,160,405,SBD
5,Susanna van den Oever,F,,1989,Raw,Open,Netherlands,91.9,84+,135,145,-155,145,57.5,-62.5,62.5,62.5,145,160,172.5,172.5,380,SBD
6,Daphne Pieterson,F,,1978,Raw,Open,Netherlands,90.5,84+,120,130,135,135,80,82.5,-85,82.5,150,160,-170,160,377.5,SBD
7,Floortje Leander,F,,2001,Raw,Open,Netherlands,92.9,84+,117.5,122.5,130,130,72.5,75,-80,75,130,137.5,147.5,147.5,352.5,SBD
8,Emma Meinen,F,,2000,Raw,Open,Netherlands,95.2,84+,130,135,140,140,60,-65,-65,60,147.5,152.5,-157.5,152.5,352.5,SBD
9,Amber Hattar,F,,2003,Raw,Open,Netherlands,94.2,84+,125,135,-145,135,67.5,-70,-70,67.5,135,145,-152.5,145,347.5,SBD
10,Kim Dolmans,F,,1998,Raw,Open,Netherlands,90.0,84+,110,115,125,125,55,60,62.5,62.5,140,150,-155,150,337.5,SBD
11,Thalita Mulders,F,,1994,Raw,Open,Netherlands,90.6,84+,120,130,-140,130,60,-62.5,-62.5,60,130,140,-145,140,330,SBD
12,Danique de Vries,F,,1998,Raw,Open,Netherlands,97.7,84+,122.5,130,135,135,57.5,62.5,-67.5,62.5,122.5,-130,130,130,327.5,SBD
13,Kelly Alvares,F,,1991,Raw,Open,Netherlands,118.1,84+,95,100,105,105,47.5,52.5,-57.5,52.5,117.5,-125,125,125,282.5,SBD
1,Naadir Twahir,M,,2004,Raw,Open,Netherlands,57.71,59,145,155,160,160,92.5,100,-102.5,100,175,185,195,195,455,SBD
2,Tristan Nguyen #1,M,,2000,Raw,Open,Netherlands,57.46,59,150,160,170,170,85,92.5,-100,92.5,150,160,170,170,432.5,SBD
3,Bas Oei,M,,1991,Raw,Open,Netherlands,58.32,59,115,122.5,130,130,-82.5,87.5,90,90,155,167.5,175,175,395,SBD
4,Marinus Breunisse,M,,1994,Raw,Open,Netherlands,58.34,59,-110,110,112.5,112.5,55,-60,-60,55,-137.5,137.5,-145,137.5,305,SBD
1,Richard Duits,M,,2000,Raw,Open,Netherlands,64.78,66,165,175,-180,175,110,-115,-115,110,215,222.5,-230,222.5,507.5,SBD
2,Bram van der Zaan,M,,1994,Raw,Open,Netherlands,64.98,66,150,160,165,165,100,110,115,115,185,205,215,215,495,SBD
3,Najef Zondringa,M,,1989,Raw,Open,Netherlands,64.98,66,150,160,-170,160,105,-115,-115,105,205,210,212.5,212.5,477.5,SBD
4,Gennaro Pattiiha,M,,1987,Raw,Open,Netherlands,66.00,66,140,145,147.5,147.5,100,-105,,100,200,212.5,-215,212.5,460,SBD
5,Benjamin Groen,M,,1999,Raw,Open,Netherlands,65.8,66,135,137.5,-142.5,137.5,115,122.5,-127.5,122.5,170,180,-185,180,440,SBD
6,Faustino de Groot,M,,1995,Raw,Open,Netherlands,62.66,66,-137.5,-137.5,137.5,137.5,100,105,-110,105,180,190,-200,190,432.5,SBD
7,Paolo Modena,M,,1990,Raw,Open,Netherlands,65.00,66,-145,145,-152.5,145,80,-82.5,-82.5,80,190,197.5,200,200,425,SBD
8,Casper Karremans,M,,2002,Raw,Open,Netherlands,65.14,66,145,-152.5,-155,145,87.5,92.5,-95,92.5,170,-180,-180,170,407.5,SBD
9,Rowan Scheepers,M,,1991,Raw,Open,Netherlands,64.32,66,117.5,-122.5,125,125,70,-75,75,75,132.5,135,140,140,340,SBD
1,Eray Cingi,M,,1993,Raw,Open,Netherlands,73.6,74,205,215,220,220,135,-145,-145,135,220,230,247.5,247.5,602.5,SBD
2,Geronimo Niklas,M,,1999,Raw,Open,Netherlands,72.6,74,185,195,-202.5,195,150,-157.5,-157.5,150,230,242.5,-257.5,242.5,587.5,SBD
3,Leroy Sinay,M,,1999,Raw,Open,Netherlands,72.8,74,185,195,200,200,115,122.5,127.5,127.5,230,240,-245,240,567.5,SBD
4,Alex Yang,M,,1997,Raw,Open,Netherlands,73.6,74,182.5,192.5,197.5,197.5,135,-142.5,142.5,142.5,200,210,222.5,222.5,562.5,SBD
5,Kiran Goossens,M,,2002,Raw,Open,Netherlands,73.3,74,190,200,205,205,120,-125,-125,120,205,-215,215,215,540,SBD
6,Emiel Rens,M,,1999,Raw,Open,Netherlands,73.3,74,167.5,175,180,180,120,125,-130,125,215,230,-245,230,535,SBD
7,Justin Lo Tam Loi,M,,2001,Raw,Open,Netherlands,72.6,74,170,177.5,185,185,110,117.5,122.5,122.5,200,215,225,225,532.5,SBD
8,Mika Bremer,M,,2004,Raw,Open,Netherlands,72.6,74,175,185,-190,185,-115,120,-125,120,200,210,220,220,525,SBD
9,Terence Jacobs,M,,2004,Raw,Open,Netherlands,69.1,74,170,177.5,185,185,100,107.5,-110,107.5,205,220,227.5,227.5,520,SBD
10,Pieter Voorwinden,M,,2002,Raw,Open,Netherlands,71.2,74,-170,170,175,175,127.5,132.5,-137.5,132.5,-200,200,210,210,517.5,SBD
11,Johny Paelinck,M,,1970,Raw,Open,Netherlands,73.3,74,160,170,180,180,105,110,112.5,112.5,180,190,-200,190,482.5,SBD
12,Mick de Jongh,M,,2005,Raw,Open,Netherlands,73.9,74,155,165,170,170,75,77.5,80,80,215,225,232.5,232.5,482.5,SBD
13,Kennedy Rocha,M,,1989,Raw,Open,Netherlands,72.3,74,140,-150,150,150,115,125,-130,125,175,187.5,200,200,475,SBD
14,Duke Heitink,M,,2003,Raw,Open,Netherlands,70.3,74,135,142.5,150,150,95,100,102.5,102.5,185,-192.5,-192.5,185,437.5,SBD
15,Matthijs Hekman,M,,1996,Raw,Open,Netherlands,71.4,74,125,135,140,140,95,100,102.5,102.5,175,187.5,-200,187.5,430,SBD
16,Stefan Radouane,M,,2002,Raw,Open,Netherlands,72.2,74,-145,155,167.5,167.5,70,77.5,-85,77.5,155,170,185,185,430,SBD
17,Tom Claessen,M,,1995,Raw,Open,Netherlands,69.0,74,110,117.5,120,120,-70,72.5,75,75,145,155,-170,155,350,SBD
DQ,Joshua Amatsetam,M,,2001,Raw,Open,Netherlands,71.8,74,175,182.5,-185,182.5,-110,-110,-110,,240,250,-260,250,,SBD
DQ,Ibrahim Yaqoob,M,,2002,Raw,Open,Netherlands,72.0,74,-170,-185,-185,,115,122.5,-132.5,122.5,225,-235,-245,225,,SBD
1,Tim de Klerk,M,,1991,Raw,Open,Netherlands,82.49,83,245,-255,,245,165,-170,,165,270,285,-295,285,695,SBD
DD,Bart Sprengelmeijer,M,,1993,Raw,Open,Netherlands,82.51,83,225,240,247.5,247.5,142.5,150,-152.5,150,255,265,-275,265,,SBD
2,Marco Lee,M,,1998,Raw,Open,Netherlands,82.20,83,215,225,-230,225,172.5,177.5,180,180,240,255,-265,255,660,SBD
3,Jeroen Winnen,M,,1986,Raw,Open,Netherlands,81.4,83,190,202.5,210,210,155,-160,-160,155,240,-252.5,252.5,252.5,617.5,SBD
4,Shane Tol,M,,1998,Raw,Open,Netherlands,79.1,83,210,-222.5,-222.5,210,-130,130,-135,130,230,-250,250,250,590,SBD
5,Remco Bourgeois,M,,1993,Raw,Open,Netherlands,80.7,83,170,180,190,190,120,125,130,130,255,270,-285,270,590,SBD
6,Thijs Oudshoorn,M,,1991,Raw,Open,Netherlands,82.14,83,195,-205,-212.5,195,145,-150,150,150,230,-240,-240,230,575,SBD
7,Murad Barmou,M,,1993,Raw,Open,Netherlands,82.32,83,180,195,205,205,112.5,120,125,125,230,245,-260,245,575,SBD
8,Jip Beerse,M,,2004,Raw,Open,Netherlands,80.64,83,180,190,200,200,125,130,-135,130,210,225,232.5,232.5,562.5,SBD
9,Stefan Meinen,M,,2004,Raw,Open,Netherlands,80.85,83,187.5,195,-200,195,125,130,-132.5,130,215,225,235,235,560,SBD
10,Tomas Bozon,M,,1996,Raw,Open,Netherlands,81.88,83,180,-195,-200,180,135,-142.5,-147.5,135,230,-245,245,245,560,SBD
11,Martijn Warndorff,M,,1994,Raw,Open,Netherlands,82,83,180,-187.5,-195,180,130,135,137.5,137.5,215,225,235,235,552.5,SBD
12,Don van der Steeg,M,,1989,Raw,Open,Netherlands,81.22,83,-195,200,-205,200,140,-142.5,142.5,142.5,195,207.5,-212.5,207.5,550,SBD
13,Jort Peels,M,,2004,Raw,Open,Netherlands,77.74,83,185,195,202.5,202.5,110,117.5,120,120,202.5,215,220,220,542.5,SBD
14,Mike Beer,M,,1997,Raw,Open,Netherlands,81.15,83,185,195,-202.5,195,107.5,115,-120,115,220,230,-240,230,540,SBD
15,Raveen van Oldenmark,M,,1996,Raw,Open,Netherlands,82,83,170,182.5,187.5,187.5,100,107.5,-110,107.5,222.5,237.5,245,245,540,SBD
16,Jefta Delfos,M,,1989,Raw,Open,Netherlands,79.00,83,160,167.5,175,175,117.5,122.5,127.5,127.5,215,227.5,235,235,537.5,SBD
17,Zohair Kanjaa,M,,2001,Raw,Open,Netherlands,79.10,83,157.5,167.5,-175,167.5,120,125,127.5,127.5,230,240,-250,240,535,SBD
18,Manuel Apalmo,M,,1999,Raw,Open,Netherlands,81.25,83,170,172.5,-180,172.5,127.5,-132.5,-132.5,127.5,205,215,-225,215,515,SBD
19,Noud Frints,M,,1996,Raw,Open,Netherlands,82.18,83,177.5,187.5,-195,187.5,100,110,112.5,112.5,190,205,212.5,212.5,512.5,SBD
20,Julius van Hulst,M,,2001,Raw,Open,Netherlands,79.66,83,-165,170,180,180,100,-105,-105,100,230,-242.5,-242.5,230,510,SBD
21,Jens Westra,M,,2004,Raw,Open,Netherlands,80.94,83,165,175,-185,175,100,107.5,112.5,112.5,187.5,197.5,212.5,212.5,500,SBD
22,Tylo Beerten,M,,1994,Raw,Open,Netherlands,81.02,83,147.5,155,162.5,162.5,107.5,112.5,-115,112.5,197.5,215,225,225,500,SBD
23,Melle Peels,M,,2005,Raw,Open,Netherlands,75.96,83,162.5,172.5,180,180,107.5,-115,-115,107.5,187.5,200,210,210,497.5,SBD
24,Lorenzo de Weerd,M,,2005,Raw,Open,Netherlands,78.69,83,160,170,-177.5,170,100,105,110,110,200,210,-220,210,490,SBD
25,Bart Schieving,M,,1994,Raw,Open,Netherlands,81.48,83,-165,-165,170,170,110,-115,117.5,117.5,175,185,200,200,487.5,SBD
26,Liam Wayman,M,,2003,Raw,Open,Netherlands,80.56,83,155,165,177.5,177.5,90,-97.5,97.5,97.5,200,210,-235,210,485,SBD
27,Raoul Mourits,M,,1999,Raw,Open,Netherlands,82.34,83,-160,160,170,170,-95,100,-105,100,200,207.5,215,215,485,SBD
28,Marc Smit,M,,1991,Raw,Open,Netherlands,79.92,83,155,162.5,170,170,95,100,-102.5,100,190,200,207.5,207.5,477.5,SBD
29,Rubin Koot,M,,1998,Raw,Open,Netherlands,81.96,83,-170,170,-177.5,170,100,107.5,-110,107.5,170,185,195,195,472.5,SBD
30,Adam Schultz,M,,2001,Raw,Open,Netherlands,81.93,83,160,-170,-170,160,105,110,-115,110,190,-200,-200,190,460,SBD
31,Sten Terlouw,M,,2002,Raw,Open,Netherlands,76.22,83,130,145,152.5,152.5,90,95,100,100,185,202.5,-207.5,202.5,455,SBD
32,Jerrel den Harder,M,,1999,Raw,Open,Netherlands,78.06,83,140,152.5,162.5,162.5,120,-132.5,-132.5,120,155,170,-180,170,452.5,SBD
33,Michiel Stekelenburg,M,,2000,Raw,Open,Netherlands,81.0,83,132.5,140,145,145,100,107.5,112.5,112.5,135,150,162.5,162.5,420,SBD
34,Luuk de Vries,M,,2002,Raw,Open,Netherlands,81.14,83,142.5,152.5,155,155,-80,80,85,85,165,180,-190,180,420,SBD
35,Daniël den Hollander,M,,2001,Raw,Open,Netherlands,77.5,83,-125,-125,125,125,77.5,82.5,-85,82.5,150,157.5,165,165,372.5,SBD
36,Michael Diebels,M,,1995,Raw,Open,Netherlands,79.7,83,110,115,117.5,117.5,67.5,70,75,75,130,137.5,145,145,337.5,SBD
DQ,Frank Toonen,M,,1995,Raw,Open,Netherlands,79.11,83,185,200,-202.5,200,-120,-130,-130,,,,,,,SBD
1,Damian van Sinderen,M,,1997,Raw,Open,Netherlands,91.58,93,210,230,240,240,150,160,-165,160,240,260,275,275,675,SBD
2,Lennart Bolks,M,,1999,Raw,Open,Netherlands,91.68,93,220,232.5,240,240,-165,172.5,180,180,227.5,245,255,255,675,SBD
3,Bram Smits,M,,1997,Raw,Open,Netherlands,91.03,93,225,232.5,240,240,150,155,-157.5,155,265,277.5,-287.5,277.5,672.5,SBD
4,Ries de Haan,M,,1996,Raw,Open,Netherlands,91.07,93,230,240,245,245,140,147.5,-152.5,147.5,265,275,-287.5,275,667.5,SBD
5,Casper Vaes,M,,1993,Raw,Open,Netherlands,92.6,93,230,245,255,255,142.5,147.5,-152.5,147.5,250,265,-275,265,667.5,SBD
6,Niek Bronsvoort,M,,1999,Raw,Open,Netherlands,92.06,93,205,215,222.5,222.5,150,155,,155,255,270,280,280,657.5,SBD
7,Marciano Schildmeijer,M,,1991,Raw,Open,Netherlands,90.71,93,220,230,-235,230,147.5,152.5,-155,152.5,255,265,-270,265,647.5,SBD
8,Lars Knöps,M,,1991,Raw,Open,Netherlands,91.00,93,192.5,202.5,-207.5,202.5,165,172.5,-177.5,172.5,250,260,270,270,645,SBD
9,Martijn Hazeleger,M,,1998,Raw,Open,Netherlands,88.54,93,205,217.5,225,225,150,-155,-155,150,255,267.5,-275,267.5,642.5,SBD
10,Halim Schultz,M,,1998,Raw,Open,Netherlands,90.72,93,190,200,205,205,155,160,-170,160,250,265,275,275,640,SBD
11,Tarik Azzaoui,M,,2000,Raw,Open,Netherlands,91.2,93,210,220,-230,220,147.5,155,160,160,250,-260,260,260,640,SBD
12,Cerian Veilbrief,M,,1999,Raw,Open,Netherlands,91.59,93,235,-245,-247.5,235,-145,145,150,150,232.5,245,255,255,640,SBD
13,Hans van Rootselaar,M,,1996,Raw,Open,Netherlands,91.42,93,202.5,215,222.5,222.5,152.5,-160,162.5,162.5,220,235,245,245,630,SBD
14,Nando Kolk,M,,2000,Raw,Open,Netherlands,91.98,93,207.5,217.5,225,225,127.5,-132.5,132.5,132.5,262.5,272.5,-277.5,272.5,630,SBD
15,Rim Pinckers,M,,1992,Raw,Open,Netherlands,87.33,93,210,225,232.5,232.5,137.5,142.5,-147.5,142.5,225,242.5,-255,242.5,617.5,SBD
16,Job Zeijen,M,,1978,Raw,Open,Netherlands,88.12,93,205,217.5,220,220,117.5,127.5,-130,127.5,245,265,-282.5,265,612.5,SBD
17,Bruno Frijn,M,,1999,Raw,Open,Netherlands,92.01,93,190,202.5,210,210,130,140,-145,140,260,-280,-280,260,610,SBD
18,Marcel Goedhart,M,,1995,Raw,Open,Netherlands,89.35,93,210,222.5,230,230,120,127.5,-135,127.5,245,-260,-260,245,602.5,SBD
19,Brent Verkooijen,M,,1999,Raw,Open,Netherlands,91.16,93,205,215,220,220,125,132.5,-140,132.5,235,250,-255,250,602.5,SBD
20,Sam ter Mors,M,,1999,Raw,Open,Netherlands,89.28,93,175,187.5,200,200,130,140,-147.5,140,222.5,242.5,255,255,595,SBD
21,Joey Biesterbos,M,,1996,Raw,Open,Netherlands,91.21,93,190,197.5,205,205,120,125,-130,125,255,265,-300,265,595,SBD
22,Roy Bulthuis,M,,1998,Raw,Open,Netherlands,91.74,93,220,227.5,232.5,232.5,120,122.5,-125,122.5,230,237.5,-245,237.5,592.5,SBD
23,Maik van der Sleen,M,,1992,Raw,Open,Netherlands,87.54,93,205,-215,215,215,107.5,112.5,-115,112.5,245,255,260,260,587.5,SBD
24,Bram Paul,M,,2001,Raw,Open,Netherlands,92.20,93,185,197.5,202.5,202.5,130,135,-137.5,135,225,240,250,250,587.5,SBD
25,André Haverlag,M,,1999,Raw,Open,Netherlands,92.38,93,195,202.5,210,210,127.5,132.5,-137.5,132.5,245,-257.5,-257.5,245,587.5,SBD
26,Sjoerd Dijkstra,M,,1996,Raw,Open,Netherlands,90.52,93,200,210,-215,210,127.5,132.5,-135,132.5,225,235,242.5,242.5,585,SBD
27,Mike Beelen,M,,1991,Raw,Open,Netherlands,92.01,93,207.5,220,225,225,107.5,-115,115,115,235,-245,245,245,585,SBD
28,Sven Kapteyn,M,,2000,Raw,Open,Netherlands,90.82,93,180,190,200,200,120,127.5,132.5,132.5,220,235,250,250,582.5,SBD
29,Thijs van den Dobbelsteen,M,,2005,Raw,Open,Netherlands,90.90,93,202.5,210,212.5,212.5,125,-132.5,132.5,132.5,225,235,237.5,237.5,582.5,SBD
30,Carlo Groeneweg,M,,1994,Raw,Open,Netherlands,92.97,93,190,197.5,-200,197.5,137.5,-142.5,-142.5,137.5,235,240,245,245,580,SBD
31,Sander Baltus,M,,1997,Raw,Open,Netherlands,91.88,93,200,207.5,212.5,212.5,110,117.5,-120,117.5,220,235,245,245,575,SBD
32,Milan Wassing,M,,2002,Raw,Open,Netherlands,90.53,93,210,-220,-220,210,120,127.5,-130,127.5,-225,225,235,235,572.5,SBD
33,Michel Laugs,M,,1984,Raw,Open,Netherlands,85.16,93,165,172.5,175,175,135,142.5,147.5,147.5,230,237.5,242.5,242.5,565,SBD
34,Jim van de Ven,M,,1990,Raw,Open,Netherlands,91.64,93,177.5,187.5,190,190,127.5,132.5,135,135,225,232.5,237.5,237.5,562.5,SBD
35,Jaden Dos Santos Cheung,M,,2001,Raw,Open,Netherlands,87.66,93,175,182.5,190,190,115,120,125,125,220,235,245,245,560,SBD
36,Joep Janssen,M,,1996,Raw,Open,Netherlands,89.44,93,182.5,192.5,200,200,122.5,127.5,130,130,210,220,230,230,560,SBD
37,Kevin Philipsen,M,,1996,Raw,Open,Netherlands,91.22,93,190,200,-210,200,130,135,-140,135,220,222.5,-245,222.5,557.5,SBD
38,Kevin Duijkers,M,,2002,Raw,Open,Netherlands,90.54,93,200,207.5,212.5,212.5,112.5,117.5,122.5,122.5,210,217.5,220,220,555,SBD
39,Elmo van den Broek,M,,2000,Raw,Open,Netherlands,90.86,93,185,-187.5,200,200,120,127.5,-132.5,127.5,210,225,-235,225,552.5,SBD
40,Peter van der Mast,M,,1985,Raw,Open,Netherlands,85.72,93,180,190,-200,190,125,132.5,-137.5,132.5,205,217.5,225,225,547.5,SBD
41,Bernd Haaijer,M,,1996,Raw,Open,Netherlands,91.74,93,180,187.5,195,195,110,-120,-120,110,227.5,235,240,240,545,SBD
42,Jesse Blaauw,M,,1998,Raw,Open,Netherlands,91.20,93,170,177.5,185,185,112.5,117.5,122.5,122.5,220,235,-255,235,542.5,SBD
43,Klemen Smrekar,M,,1992,Raw,Open,Netherlands,92,93,-200,200,215,215,100,112.5,-120,112.5,200,215,-225,215,542.5,SBD
44,Milan Daalhuisen,M,,1999,Raw,Open,Netherlands,90.2,93,177.5,187.5,192.5,192.5,120,130,-137.5,130,195,210,-220,210,532.5,SBD
45,Dennis Hulsebos,M,,2000,Raw,Open,Netherlands,90.04,93,175,185,195,195,120,-130,-130,120,200,215,-220,215,530,SBD
46,Jeroen van Leeuwen,M,,1998,Raw,Open,Netherlands,88.5,93,172.5,177.5,182.5,182.5,112.5,117.5,-122.5,117.5,215,225,-230,225,525,SBD
47,Abel Agterberg,M,,1998,Raw,Open,Netherlands,90.4,93,165,175,-180,175,107.5,112.5,-117.5,112.5,-220,220,235,235,522.5,SBD
48,Jesse Froon,M,,2002,Raw,Open,Netherlands,87.1,93,170,-180,185,185,107.5,115,120,120,190,205,215,215,520,SBD
49,Joris Jonk,M,,1996,Raw,Open,Netherlands,89.5,93,160,170,180,180,115,122.5,-130,122.5,190,200,215,215,517.5,SBD
50,Dyon Nelis,M,,2000,Raw,Open,Netherlands,88.8,93,180,185,-187.5,185,105,110,115,115,200,207.5,-212.5,207.5,507.5,SBD
51,Ralf Vanoppen,M,,2001,Raw,Open,Netherlands,88.1,93,140,147.5,155,155,100,105,107.5,107.5,-220,230,240,240,502.5,SBD
52,Yorick Paassen,M,,2001,Raw,Open,Netherlands,90.4,93,152.5,162.5,-170,162.5,102.5,107.5,112.5,112.5,195,207.5,225,225,500,SBD
53,Simon Klaassen,M,,1999,Raw,Open,Netherlands,87.84,93,165,-172.5,-172.5,165,100,-107.5,-107.5,100,225,230,-235,230,495,SBD
54,Nout Hakkesteegt,M,,1998,Raw,Open,Netherlands,84.7,93,170,180,185,185,85,90,-95,90,190,205,215,215,490,SBD
55,Xander van der Steen,M,,2001,Raw,Open,Netherlands,90.1,93,150,160,-170,160,107.5,-115,-115,107.5,215,222.5,-232.5,222.5,490,SBD
56,Emre Ekmekci,M,,2000,Raw,Open,Netherlands,89.14,93,175,-190,-190,175,110,115,-122.5,115,190,-202.5,-205,190,480,SBD
57,Lloyd Bieshaar,M,,1991,Raw,Open,Netherlands,90.44,93,160,170,-175,170,97.5,,,97.5,200,210,-225,210,477.5,SBD
58,Lennart ter Haar,M,,1990,Raw,Open,Netherlands,90.8,93,-160,160,-165,160,100,-107.5,-107.5,100,197.5,207.5,215,215,475,SBD
59,Rutger Wijsmuller,M,,1997,Raw,Open,Netherlands,90.5,93,150,157.5,165,165,97.5,102.5,107.5,107.5,175,187.5,200,200,472.5,SBD
60,Mitchell Steenberghe,M,,1995,Raw,Open,Netherlands,86.9,93,160,167.5,172.5,172.5,100,105,-107.5,105,170,175,180,180,457.5,SBD
61,Vikram Radhakrishnan,M,,1990,Raw,Open,Netherlands,89.6,93,150,157.5,160,160,97.5,-102.5,107.5,107.5,175,182.5,190,190,457.5,SBD
62,Frank Warrink,M,,2005,Raw,Open,Netherlands,87,93,145,152.5,157.5,157.5,82.5,90,92.5,92.5,185,200,-210,200,450,SBD
63,Stijn Reimert,M,,2005,Raw,Open,Netherlands,90.8,93,-147.5,-157.5,165,165,92.5,97.5,100,100,185,-200,-210,185,450,SBD
64,Marien Moens,M,,2000,Raw,Open,Netherlands,84.8,93,140,-147.5,147.5,147.5,85,92.5,100,100,170,185,200,200,447.5,SBD
65,Nick Olink,M,,1997,Raw,Open,Netherlands,91.6,93,137.5,147.5,-152.5,147.5,80,85,87.5,87.5,190,200,-210,200,435,SBD
66,Patrick Massop,M,,1994,Raw,Open,Netherlands,87.4,93,-127.5,127.5,135,135,80,85,87.5,87.5,185,192.5,200,200,422.5,SBD
67,Eelco Hoetjes,M,,1977,Raw,Open,Netherlands,91.4,93,145,-152.5,152.5,152.5,75,77.5,80,80,180,190,-200,190,422.5,SBD
68,Casper Zoeteman,M,,1990,Raw,Open,Netherlands,87.5,93,125,130,135,135,92.5,100,107.5,107.5,145,155,170,170,412.5,SBD
69,Bram Dunnink,M,,1981,Raw,Open,Netherlands,91.8,93,130,137.5,145,145,90,95,-100,95,155,165,-170,165,405,SBD
70,Stephan Langeveld,M,,1972,Raw,Open,Netherlands,89.3,93,112.5,120,-125,120,67.5,72.5,75,75,155,165,-170,165,360,SBD
DQ,Mark Welten,M,,1990,Raw,Open,Netherlands,87.9,93,-165,170,175,175,-105,-105,-105,,190,200,205,205,,SBD
DQ,Thomas Roosendaal,M,,1990,Raw,Open,Netherlands,89.98,93,-190,200,-205,200,-120,-125,-125,,230,237.5,-242.5,237.5,,SBD
DQ,Bas Diks,M,,1985,Raw,Open,Netherlands,90.4,93,-162.5,-162.5,-162.5,,95,100,-105,100,210,222.5,235,235,,SBD
DQ,Rik Bruin,M,,2002,Raw,Open,Netherlands,90.8,93,-185,-190,-197.5,,127.5,-135,-140,127.5,225,237.5,245,245,,SBD
DQ,Martin van den Berg,M,,1990,Raw,Open,Netherlands,91.12,93,195,-202.5,205,205,135,-140,140,140,-225,-230,-230,,,SBD
1,Bob van den Boogaard,M,,1995,Raw,Open,Netherlands,103.99,105,-300,302.5,310,310,155,165,170,170,300,320,325,325,805,SBD
2,Juan Lovera,M,,1995,Raw,Open,Netherlands,101.62,105,-205,220,230,230,172.5,180,-185,180,295,-310,310,310,720,SBD
3,Dennis Scholten,M,,1997,Raw,Open,Netherlands,103.44,105,230,237.5,-240,237.5,177.5,185,-190,185,-270,272.5,285,285,707.5,SBD
4,Khubeib Al Jabar,M,,1994,Raw,Open,Netherlands,104.32,105,-220,225,230,230,170,-175,-175,170,280,295,-300,295,695,SBD
5,Sherif van der Lans,M,,1994,Raw,Open,Netherlands,102.35,105,225,235,-240,235,150,-157.5,157.5,157.5,272.5,292.5,-302.5,292.5,685,SBD
6,Roy Kreuger,M,,1994,Raw,Open,Netherlands,103.30,105,227.5,235,-240,235,165,-167.5,,165,270,280,-290,280,680,SBD
7,Hennes de Kok,M,,2000,Raw,Open,Netherlands,98.99,105,227.5,235,242.5,242.5,150,155,160,160,275,-290,-297.5,275,677.5,SBD
8,Marcel Tamminga,M,,1993,Raw,Open,Netherlands,103.22,105,210,230,-250,230,142.5,147.5,,147.5,-300,300,-330,300,677.5,SBD
9,Fabian Reehuis,M,,1995,Raw,Open,Netherlands,101.96,105,240,252.5,-260,252.5,135,142.5,147.5,147.5,255,265,275,275,675,SBD
10,Erik van den Bulk,M,,1998,Raw,Open,Netherlands,100.83,105,220,225,235,235,155,162.5,-170,162.5,230,267.5,,267.5,665,SBD
11,Stanley van Essen,M,,1995,Raw,Open,Netherlands,103.39,105,227.5,240,250,250,147.5,155,157.5,157.5,245,-257.5,257.5,257.5,665,SBD
12,Steyn Slingschroder,M,,1996,Raw,Open,Netherlands,104.36,105,237.5,250,255,255,147.5,155,162.5,162.5,235,247.5,-260,247.5,665,SBD
13,Sven den Houting,M,,1976,Raw,Open,Netherlands,100.12,105,225,240,250,250,135,145,150,150,225,240,250,250,650,SBD
14,Mickey Hart,M,,,Raw,Open,Netherlands,96.10,105,215,227.5,235,235,160,-165,-165,160,240,250,-270,250,645,SBD
15,Tom van Mill,M,,1996,Raw,Open,Netherlands,103.68,105,195,205,217.5,217.5,135,145,147.5,147.5,235,-250,255,255,620,SBD
16,Tom van de Graaf,M,,1989,Raw,Open,Netherlands,98.53,105,200,210,220,220,142.5,147.5,150,150,220,230,245,245,615,SBD
17,Oane Jansen,M,,2003,Raw,Open,Netherlands,104.35,105,210,225,232.5,232.5,125,132.5,135,135,232.5,245,-252.5,245,612.5,SBD
18,Marick Klarenbeek,M,,1996,Raw,Open,Netherlands,102.53,105,205,215,-217.5,215,130,135,140,140,235,250,255,255,610,SBD
19,Rick Boers,M,,1999,Raw,Open,Netherlands,104.45,105,-215,215,-225,215,140,147.5,150,150,215,230,240,240,605,SBD
20,Rutger Dijk,M,,1991,Raw,Open,Netherlands,101.93,105,-195,205,207.5,207.5,120,125,-130,125,235,255,265,265,597.5,SBD
21,Remco van den Broek,M,,2001,Raw,Open,Netherlands,96.61,105,180,-190,190,190,135,142.5,-150,142.5,240,260,-267.5,260,592.5,SBD
22,Devin van Gils,M,,1999,Raw,Open,Netherlands,97.78,105,175,185,192.5,192.5,135,142.5,145,145,230,245,255,255,592.5,SBD
23,Tom Böckling,M,,1998,Raw,Open,Netherlands,101.54,105,200,207.5,212.5,212.5,130,135,137.5,137.5,220,232.5,242.5,242.5,592.5,SBD
24,Milan Groote,M,,2004,Raw,Open,Netherlands,102.1,105,190,205,215,215,115,122.5,127.5,127.5,220,235,250,250,592.5,SBD
25,Yannick van der Corput,M,,2002,Raw,Open,Netherlands,102.52,105,190,202.5,212.5,212.5,125,130,135,135,210,227.5,240,240,587.5,SBD
26,Emiel Laugs,M,,1987,Raw,Open,Netherlands,104.46,105,180,190,200,200,160,165,-170,165,190,205,220,220,585,SBD
27,Thomas Tijdeman,M,,1989,Raw,Open,Netherlands,104.98,105,210,220,-227.5,220,140,147.5,-150,147.5,205,217.5,-227.5,217.5,585,SBD
28,Rinus de Wit,M,,1999,Raw,Open,Netherlands,102.40,105,190,-197.5,200,200,140,145,-150,145,235,,,235,580,SBD
29,Jannik Zozmann,M,,2001,Raw,Open,Netherlands,97.53,105,190,-200,200,200,122.5,-127.5,127.5,127.5,235,247.5,-257.5,247.5,575,SBD
30,Otte Jansen,M,,1998,Raw,Open,Netherlands,102.52,105,180,190,-200,190,125,135,-140,135,220,230,240,240,565,SBD
31,Ludchano Leliveld,M,,1996,Raw,Open,Netherlands,99.9,105,180,192.5,200,200,130,-137.5,-137.5,130,220,232.5,-242.5,232.5,562.5,SBD
32,Anne Wind,M,,1994,Raw,Open,Netherlands,99.56,105,195,-207.5,-210,195,117.5,125,130,130,220,235,-250,235,560,SBD
33,Joost Vaessen,M,,1993,Raw,Open,Netherlands,100.12,105,185,195,200,200,122.5,127.5,130,130,200,215,222.5,222.5,552.5,SBD
34,Marc Verbeek,M,,1996,Raw,Open,Netherlands,103.64,105,-190,190,-200,190,110,117.5,-120,117.5,210,225,235,235,542.5,SBD
35,Jesse de Haan,M,,2004,Raw,Open,Netherlands,104.9,105,185,195,202.5,202.5,117.5,122.5,125,125,190,200,207.5,207.5,535,SBD
36,Ali Kilic,M,,1994,Raw,Open,Netherlands,100.08,105,180,190,207.5,207.5,115,125,-132.5,125,180,200,-230,200,532.5,SBD
37,Daan Hofstra,M,,2005,Raw,Open,Netherlands,94.74,105,-187.5,195,-205,195,127.5,132.5,135,135,187.5,200,-207.5,200,530,SBD
38,Cédric van Lenthe,M,,2003,Raw,Open,Netherlands,101.38,105,165,175,185,185,117.5,-125,127.5,127.5,202.5,217.5,-227.5,217.5,530,SBD
39,Jayco de Ligt,M,,2001,Raw,Open,Netherlands,104.82,105,150,160,170,170,-115,120,125,125,205,220,230,230,525,SBD
40,Arthur Roodenburg,M,,1977,Raw,Open,Netherlands,98.74,105,192.5,200,205,205,95,100,-105,100,205,217.5,-225,217.5,522.5,SBD
41,Erwin van Doggenaar,M,,1990,Raw,Open,Netherlands,102.14,105,155,165,175,175,110,115,117.5,117.5,205,220,230,230,522.5,SBD
42,Lars Lurvink,M,,1994,Raw,Open,Netherlands,100.94,105,192.5,-202.5,-202.5,192.5,107.5,112.5,-117.5,112.5,192.5,202.5,212.5,212.5,517.5,SBD
43,Martijn van Oostveen,M,,1977,Raw,Open,Netherlands,101.80,105,150,160,-170,160,127.5,-132.5,132.5,132.5,215,225,-232.5,225,517.5,SBD
44,Allard Gooshouwer,M,,2001,Raw,Open,Netherlands,95.36,105,170,180,-187.5,180,107.5,112.5,115,115,200,210,220,220,515,SBD
45,Zennar den Hartog,M,,2000,Raw,Open,Netherlands,99.54,105,150,165,175,175,105,112.5,120,120,-220,220,-240,220,515,SBD
46,Tom van Oosterom,M,,2001,Raw,Open,Netherlands,101.54,105,167.5,175,180,180,87.5,92.5,-95,92.5,195,210,225,225,497.5,SBD
47,Nick van der Loo,M,,1990,Raw,Open,Netherlands,103.88,105,140,-150,152.5,152.5,105,112.5,117.5,117.5,200,212.5,225,225,495,SBD
48,Jasper Neulen,M,,1997,Raw,Open,Netherlands,97.96,105,155,167.5,172.5,172.5,102.5,110,-115,110,195,205,-215,205,487.5,SBD
49,Gwidon Miezalski,M,,1989,Raw,Open,Netherlands,97.1,105,170,175,180,180,-120,125,130,130,-170,175,-185,175,485,SBD
50,Stijn Gierkink,M,,1991,Raw,Open,Netherlands,102.37,105,-165,165,175,175,95,100,-105,100,180,195,205,205,480,SBD
51,Mike Visser,M,,1991,Raw,Open,Netherlands,102.26,105,160,167.5,-172.5,167.5,110,117.5,-122.5,117.5,165,175,182.5,182.5,467.5,SBD
52,Erwin Poort,M,,1990,Raw,Open,Netherlands,102.22,105,150,160,170,170,80,85,90,90,185,195,205,205,465,SBD
53,Rolf Bettinger,M,,1966,Raw,Open,Netherlands,94.85,105,120,132.5,140,140,102.5,107.5,-112.5,107.5,165,185,195,195,442.5,SBD
1,Glenn Kofman,M,,1990,Raw,Open,Netherlands,118.5,120,-285,285,305,305,185,195,-200,195,285,295,-312.5,295,795,SBD
2,Robin Kensenhuis,M,,1980,Raw,Open,Netherlands,107.7,120,235,255,265,265,150,160,,160,285,310,330,330,755,SBD
3,Noah Sipsma,M,,2001,Raw,Open,Netherlands,116.6,120,220,232.5,240,240,125,135,142.5,142.5,260,270,280,280,662.5,SBD
4,Luuk de Wit,M,,1992,Raw,Open,Netherlands,118.7,120,205,215,225,225,135,142.5,-147.5,142.5,255,270,275,275,642.5,SBD
5,Silvan van Leeuwen,M,,1987,Raw,Open,Netherlands,114.9,120,205,217.5,225,225,135,140,142.5,142.5,245,260,-270,260,627.5,SBD
6,Vincent Baarslag,M,,1995,Raw,Open,Netherlands,119.2,120,200,-215,-215,200,122.5,127.5,-132.5,127.5,295,-305,,295,622.5,SBD
7,Mike Kolkman,M,,1991,Raw,Open,Netherlands,118.0,120,-220,220,-235,220,130,140,-150,140,225,240,255,255,615,SBD
8,Daan van Vught,M,,1996,Raw,Open,Netherlands,117.8,120,220,230,240,240,110,120,-125,120,210,225,-235,225,585,SBD
1,Sebastiaan Tempelaars,M,,1990,Raw,Open,Netherlands,162.4,120+,335,355,-372.5,355,230,240,-245,240,305,320,-330,320,915,SBD
2,Coen Wijnia,M,,1996,Raw,Open,Netherlands,136.3,120+,230,-242.5,250,250,182.5,187.5,192.5,192.5,250,265,-280,265,707.5,SBD
3,Jordy van Muijen,M,,1998,Raw,Open,Netherlands,130.0,120+,222.5,235,245,245,137.5,145,-152.5,145,277.5,-285,-285,277.5,667.5,SBD
4,Lars Kruik,M,,1997,Raw,Open,Netherlands,129.8,120+,215,230,240,240,127.5,135,-140,135,267.5,280,-295,280,655,SBD
5,Arjaan Martini,M,,1989,Raw,Open,Netherlands,123.3,120+,210,220,230,230,100,105,110,110,280,295,-310,295,635,SBD
6,Luuc van Gennip,M,,2001,Raw,Open,Netherlands,126.9,120+,170,180,190,190,135,140,145,145,190,200,215,215,550,SBD
1,Enzo Brouwers,M,,2002,Raw,Adaptive,Netherlands,103.24,105,-205,215,-230,215,110,120,-125,120,215,230,-240,230,565,SBD
