Division,WeightClassKg,Place,Name,Team,BodyweightKg,Best3SquatKg,Best3BenchKg,Best3DeadliftKg,TotalKg,Equipment,Event,Sex
Boys,55.79,1,Haif Martinez,Lewisville The Colony,51.89,174.63,95.25,185.97,455.86,Single-ply,SBD,M
Boys,51.71,2,JT White,Cedar Hill,51.26,161.03,81.65,197.31,439.98,Single-ply,SBD,M
Boys,55.79,3,Cassius Fitzpatrick,Denison,51.89,158.76,99.79,161.03,419.57,Single-ply,SBD,M
Boys,55.79,4,Tyler Groce,Mansfield Legacy,51.94,142.88,68.04,147.42,358.34,Single-ply,SBD,M
Boys,51.71,5,Gerald Van Ess,McKinney North,51.26,136.08,65.77,120.2,322.05,Single-ply,SBD,M
Boys,51.71,6,Rodney Barnes,Everman,46.27,124.74,65.77,129.27,319.78,Single-ply,SBD,M
Boys,51.71,7,Zach Kuntz,Rockwall,49.53,111.13,63.5,138.35,312.98,Single-ply,SBD,M
Boys,51.71,8,Mohammad Ali,Mansfield Timberview,46.18,111.13,68.04,131.54,310.71,Single-ply,SBD,M
Boys,51.71,9,Robert Parra,Carrollton Creekview,50.71,102.06,58.97,133.81,294.84,Single-ply,SBD,M
Boys,51.71,NS,Chris Raine,Frisco Liberty,,,,,,Single-ply,SBD,M
Boys,55.79,1,Dominique Moreland,Mansfield Summit,55.61,176.9,90.72,208.65,476.27,Single-ply,SBD,M
Boys,59.87,2,Demitri Sommer,Lewisville The Colony,56.02,185.97,92.99,181.44,460.4,Single-ply,SBD,M
Boys,59.87,3,Toni Ogunsola,Frisco,55.97,170.1,90.72,170.1,430.91,Single-ply,SBD,M
Boys,55.79,4,Ashton Williams,Everman,55.57,149.69,86.18,183.7,419.57,Single-ply,SBD,M
Boys,59.87,5,Brandon Thomas,McKinney North,55.88,158.76,77.11,181.44,417.3,Single-ply,SBD,M
Boys,55.79,6,Daniel Hernandez #27,Royse City,55.34,156.49,79.38,163.29,399.16,Single-ply,SBD,M
Boys,55.79,7,Dameon Bissant,Cedar Hill,55.43,176.9,77.11,145.15,399.16,Single-ply,SBD,M
Boys,59.87,8,Chris Alcantar,Carrollton Creekview,55.88,131.54,92.99,165.56,390.09,Single-ply,SBD,M
Boys,55.79,9,Tevin Cofield,Mansfield,55.52,149.69,97.52,140.61,387.82,Single-ply,SBD,M
Boys,55.79,10,Shang Bou,Fort Worth Paschal,55.07,145.15,83.91,156.49,385.55,Single-ply,SBD,M
Boys,67.13,1,Clarington Lightfoot,Everman,60.06,215.46,113.4,229.06,557.92,Single-ply,SBD,M
Boys,59.87,2,Carlos Bravo,Lewisville The Colony,59.33,197.31,113.4,201.85,512.56,Single-ply,SBD,M
Boys,59.87,3,Aaron Pomerantz,Lewisville Marcus,59.33,204.12,106.59,188.24,498.95,Single-ply,SBD,M
Boys,59.87,4,Alejandro Olmos,Everman,58.74,176.9,120.2,174.63,471.74,Single-ply,SBD,M
Boys,59.87,5,Jory Heath,Bishop Lynch,59.24,163.29,104.33,190.51,458.13,Single-ply,SBD,M
Boys,67.13,6,Matthew Barrett-Cobb,Mansfield Summit,60.06,179.17,83.91,190.51,453.59,Single-ply,SBD,M
Boys,59.87,7,Adam Byrd,Wichita Falls Rider,59.69,181.44,95.25,174.63,451.32,Single-ply,SBD,M
Boys,59.87,8,Demetrius Hutcherson,Azle,59.69,185.97,74.84,176.9,437.72,Single-ply,SBD,M
Boys,59.87,9,Brandon Green,Mansfield Timberview,58.79,158.76,83.91,192.78,435.45,Single-ply,SBD,M
Boys,59.87,NS,Zach Rose,Cedar Hill,,,,,,Single-ply,SBD,M
Boys,67.13,1,John Wrenn,Bishop Lynch,65.68,235.87,124.74,229.06,589.67,Single-ply,SBD,M
Boys,67.13,2,Stefan Sommer,Lewisville The Colony,66.22,224.53,127.01,233.6,585.13,Single-ply,SBD,M
Boys,67.13,3,Devaughn Childress,Frisco Wakeland,67.04,222.26,102.06,224.53,548.85,Single-ply,SBD,M
Boys,67.13,4,Essix Lightfoot,Everman,66.45,226.8,106.59,210.92,544.31,Single-ply,SBD,M
Boys,67.13,5,Pat White #1,Lewisville The Colony,66.68,204.12,95.25,229.06,528.44,Single-ply,SBD,M
Boys,67.13,6,Kenneth Stafford,Everman,64.41,201.85,111.13,199.58,512.56,Single-ply,SBD,M
Boys,67.13,7,Alex Ramsey,Royse City,65.68,199.58,113.4,192.78,505.76,Single-ply,SBD,M
Boys,67.13,8,Nick Baril,Frisco Centennial,65.32,197.31,120.2,163.29,480.81,Single-ply,SBD,M
Boys,67.13,9,Felix Brito,Royse City,64.14,190.51,90.72,192.78,474,Single-ply,SBD,M
Boys,67.13,DQ,Bradley Beck,McKinney,66.68,195.04,122.47,,,Single-ply,SBD,M
Boys,74.84,1,Devin Walker,Everman,73.03,249.48,133.81,231.33,614.62,Single-ply,SBD,M
Boys,74.84,2,Deshune Barlow,Cedar Hill,72.85,217.72,106.59,251.74,576.06,Single-ply,SBD,M
Boys,74.84,3,Marcus Ward,Allen,74.3,226.8,131.54,217.72,576.06,Single-ply,SBD,M
Boys,74.84,4,Tarik Crear,Cedar Hill,74.39,217.72,122.47,229.06,569.26,Single-ply,SBD,M
Boys,74.84,5,Ace Clear,Bishop Lynch,74.3,229.06,111.13,226.8,566.99,Single-ply,SBD,M
Boys,74.84,6,Anthony Wagner,Garland Rowlett,73.21,208.65,136.08,215.46,560.19,Single-ply,SBD,M
Boys,74.84,7,Royce Richichi,Lewisville The Colony,71.76,213.19,127.01,210.92,551.11,Single-ply,SBD,M
Boys,74.84,8,Ryan Wood #2,Fort Worth Boswell,74.84,204.12,122.47,215.46,542.04,Single-ply,SBD,M
Boys,74.84,9,Mason Pierce,Frisco Centennial,74.39,208.65,124.74,204.12,537.51,Single-ply,SBD,M
Boys,74.84,DQ,Colton Baley,Wichita Falls Rider,73.39,210.92,111.13,,,Single-ply,SBD,M
Boys,82.1,1,Collin Charles,Frisco Heritage,79.92,235.87,138.35,260.82,635.03,Single-ply,SBD,M
Boys,82.1,2,Austin Arnold,Denison,81.83,217.72,151.95,233.6,603.28,Single-ply,SBD,M
Boys,82.1,3,ShaCody Williams,Sherman,79.02,226.8,145.15,208.65,580.6,Single-ply,SBD,M
Boys,82.1,4,Brad Sargent,Bishop Lynch,79.02,235.87,115.67,226.8,578.33,Single-ply,SBD,M
Boys,82.1,5,Doveon Dillard,Cedar Hill,81.92,215.46,127.01,222.26,564.72,Single-ply,SBD,M
Boys,89.81,6,Mangrilio Salcedo,Fort Worth Trimble Tech,82.19,229.06,120.2,215.46,564.72,Single-ply,SBD,M
Boys,82.1,7,Juan Diaz,Saginaw,80.2,215.46,120.2,204.12,539.77,Single-ply,SBD,M
Boys,82.1,8,Cody Culwell,Azle,81.56,188.24,142.88,204.12,535.24,Single-ply,SBD,M
Boys,82.1,9,Court Prescott,Lewisville Marcus,79.83,217.72,,,217.72,Single-ply,S,M
Boys,82.1,DQ,Manny Rodriguez,Saginaw,79.47,,,,,Single-ply,S,M
Boys,89.81,1,Alex Olson,Lewisville Marcus,89.18,249.48,145.15,242.67,637.3,Single-ply,SBD,M
Boys,89.81,2,Mike Denton,Lewisville The Colony,89.09,272.16,113.4,249.48,635.03,Single-ply,SBD,M
Boys,89.81,3,Cody Duffy,Justin Northwest,89.36,258.55,161.03,215.46,635.03,Single-ply,SBD,M
Boys,89.81,4,Gage Shorter,Dallas Highland Park,89.72,229.06,163.29,229.06,621.42,Single-ply,SBD,M
Boys,89.81,5,CJ Washington,White Settlement Brewer,87.72,254.01,120.2,231.33,605.55,Single-ply,SBD,M
Boys,89.81,6,Justin Campos,Fort Worth North Side,88.81,233.6,142.88,226.8,603.28,Single-ply,SBD,M
Boys,89.81,7,Shannon Larry,White Settlement Brewer,84.28,238.14,122.47,226.8,587.4,Single-ply,SBD,M
Boys,89.81,8,Jacob Kennedy,Everman,89.58,204.12,117.93,235.87,557.92,Single-ply,SBD,M
Boys,89.81,DQ,Tony Lareanas,Lewisville Marcus,85.64,238.14,,,,Single-ply,SBD,M
Boys,89.81,DQ,D'Vonta Walker,Rockwall-Heath,89.63,276.69,,,,Single-ply,SBD,M
Boys,99.79,1,Strat Washington,Cedar Hill,96.98,290.3,163.29,285.76,739.36,Single-ply,SBD,M
Boys,99.79,2,Nathan Ferrara,Lewisville Marcus,97.43,294.84,179.17,265.35,739.36,Single-ply,SBD,M
Boys,99.79,3,Akuda Esin,Dallas Jesuit,97.43,288.03,174.63,272.16,734.82,Single-ply,SBD,M
Boys,99.79,4,Calan Johnson,Cedar Hill,97.16,272.16,174.63,244.94,691.73,Single-ply,SBD,M
Boys,99.79,5,Axel DeLeon,Little Elm,98.97,283.5,149.69,258.55,691.73,Single-ply,SBD,M
Boys,99.79,6,Isaiah Hinton,Lewisville The Colony,97.07,272.16,156.49,242.67,671.32,Single-ply,SBD,M
Boys,109.77,7,Johnny Murphy,Mansfield Summit,99.97,265.35,156.49,226.8,648.64,Single-ply,SBD,M
Boys,99.79,8,Mejia Diego,Everman,94.57,265.35,120.2,251.74,637.3,Single-ply,SBD,M
Boys,99.79,9,Marc Blades,Mansfield Summit,96.52,233.6,149.69,249.48,632.76,Single-ply,SBD,M
Boys,99.79,10,Leo Garcia,Justin Northwest,99.11,254.01,136.08,235.87,625.96,Single-ply,SBD,M
Boys,124.74,1,Damion Foster,Royse City,109.86,285.76,142.88,278.96,707.6,Single-ply,SBD,M
Boys,109.77,2,Connor Counce,Denison,109.23,294.84,149.69,260.82,705.34,Single-ply,SBD,M
Boys,109.77,3,Clayton McGilvray,Justin Northwest,104.78,272.16,158.76,249.48,680.39,Single-ply,SBD,M
Boys,109.77,4,Zack McCoy,Little Elm,107.05,272.16,154.22,235.87,662.24,Single-ply,SBD,M
Boys,109.77,5,Andrew Abamu,Cedar Hill,102.51,251.74,127.01,258.55,637.3,Single-ply,SBD,M
Boys,109.77,6,Austin Apari,Lewisville The Colony,107.95,249.48,136.08,235.87,621.42,Single-ply,SBD,M
Boys,109.77,7,Christopher McCoy,Mansfield Timberview,104.33,254.01,147.42,210.92,612.35,Single-ply,SBD,M
Boys,109.77,8,Jayden Stumbaugh,Denison,108.23,233.6,147.42,231.33,612.35,Single-ply,SBD,M
Boys,109.77,9,Joe Gonzales,Justin Northwest,104.33,226.8,127.01,244.94,598.74,Single-ply,SBD,M
Boys,109.77,DQ,Jackson Bolin,Rockwall,106.87,222.26,,,,Single-ply,SBD,M
Boys,124.74,1,Alex Fritz,Haltom City Haltom,118.93,328.85,208.65,281.23,818.73,Single-ply,SBD,M
Boys,124.74,2,Albert Willingham,Fort Worth Western Hills,116.94,281.23,226.8,215.46,723.48,Single-ply,SBD,M
Boys,124.74,3,Travis Stubblefield,Justin Northwest,114.99,281.23,172.37,249.48,703.07,Single-ply,SBD,M
Boys,124.74,4,Jake Holliman,Rockwall-Heath,118.48,276.69,156.49,269.89,703.07,Single-ply,SBD,M
Boys,124.74,5,Jerome Daniels,Little Elm,121.65,272.16,170.1,260.82,703.07,Single-ply,SBD,M
Boys,124.74,6,Andrew Cape,Weatherford,122.56,299.37,170.1,233.6,703.07,Single-ply,SBD,M
Boys,124.74,7,Anthony Washington,White Settlement Brewer,119.93,272.16,136.08,260.82,669.05,Single-ply,SBD,M
Boys,124.74,8,Ethan Dobbs,Rockwall-Heath,117.57,254.01,156.49,249.48,659.98,Single-ply,SBD,M
Boys,124.74,9,John Zaragoza,Haltom City Haltom,112.13,251.74,147.42,222.26,621.42,Single-ply,SBD,M
Boys,124.74,DQ,Mason White #5,Keller Timber Creek,124.01,308.44,,,,Single-ply,SBD,M
Boys,124.74+,1,Aderius Epps,Cedar Hill,149.87,301.64,174.63,229.06,705.34,Single-ply,SBD,M
Boys,124.74+,2,Jimmy Miller,Mansfield Summit,200.94,272.16,156.49,256.28,684.92,Single-ply,SBD,M
Boys,124.74+,3,Vinny Wurst,Bishop Lynch,129.64,299.37,145.15,235.87,680.39,Single-ply,SBD,M
Boys,124.74+,4,Sean Langley,South Garland,139.16,317.51,158.76,204.12,680.39,Single-ply,SBD,M
Boys,124.74+,5,James DeLaRossa,White Settlement Brewer,127.73,249.48,158.76,249.48,657.71,Single-ply,SBD,M
Boys,124.74+,6,Julian Salmond,Fort Worth Western Hills,125.83,269.89,142.88,219.99,632.76,Single-ply,SBD,M
Boys,124.74+,7,Anthony Zapata,Everman,125.87,260.82,127.01,235.87,623.69,Single-ply,SBD,M
Boys,124.74+,8,Daniel Kim,Lewisville The Colony,125.28,247.21,149.69,219.99,616.89,Single-ply,SBD,M
Boys,124.74+,9,Ld Douglas,Fort Worth Boswell,195.04,272.16,129.27,195.04,596.47,Single-ply,SBD,M
Boys,124.74+,NS,TJ Williams #2,Fort Worth Paschal,,,,,,Single-ply,SBD,M
Boys,124.74+,DQ,Kevin Blessing,Lewisville Marcus,131.63,256.28,,,,Single-ply,SBD,M
Boys,124.74+,DQ,Zelarious Taylor,South Garland,136.44,210.92,165.56,,,Single-ply,SBD,M
